<?xml version="1.0" encoding="UTF-8" standalone="no"?>
<!-- Generator: Adobe Illustrator 15.0.2, SVG Export Plug-In . SVG Version: 6.00 Build 0)  -->

<svg
   xmlns:dc="http://purl.org/dc/elements/1.1/"
   xmlns:cc="http://creativecommons.org/ns#"
   xmlns:rdf="http://www.w3.org/1999/02/22-rdf-syntax-ns#"
   xmlns:svg="http://www.w3.org/2000/svg"
   xmlns="http://www.w3.org/2000/svg"
   xmlns:sodipodi="http://sodipodi.sourceforge.net/DTD/sodipodi-0.dtd"
   xmlns:inkscape="http://www.inkscape.org/namespaces/inkscape"
   version="1.1"
   id="Layer_1"
   x="0px"
   y="0px"
   width="90"
   height="125"
   viewBox="0 0 90 125"
   enable-background="new 0 0 351.273 461.059"
   xml:space="preserve"
   inkscape:version="0.48.4 r9939"
   sodipodi:docname="Europa_league.svg"><title
   id="title3169">UEFA Europa League logo</title><metadata
   id="metadata135"><rdf:RDF><cc:Work
       rdf:about=""><dc:format>image/svg+xml</dc:format><dc:type
         rdf:resource="http://purl.org/dc/dcmitype/StillImage" /><dc:title>UEFA Europa League logo</dc:title></cc:Work></rdf:RDF></metadata><defs
   id="defs133" /><sodipodi:namedview
   pagecolor="#ffffff"
   bordercolor="#666666"
   borderopacity="1"
   objecttolerance="10"
   gridtolerance="10"
   guidetolerance="10"
   inkscape:pageopacity="0"
   inkscape:pageshadow="2"
   inkscape:window-width="1600"
   inkscape:window-height="844"
   id="namedview131"
   showgrid="false"
   inkscape:zoom="1"
   inkscape:cx="49.046898"
   inkscape:cy="112.43056"
   inkscape:window-x="-4"
   inkscape:window-y="-4"
   inkscape:window-maximized="1"
   inkscape:current-layer="Layer_1" />
<g
   id="g3"
   transform="matrix(0.27442892,0,0,0.27247937,-3.8911045,-0.62420357)">
	<g
   id="g5">
		<path
   d="m 242.339,295.118 c -9.28,-9.747 -20.421,-17.596 -32.821,-22.935 -11.93,-5.135 -25.047,-7.951 -38.808,-7.899 -13.76,0.053 -26.852,2.966 -38.74,8.195 -12.358,5.428 -23.44,13.367 -32.646,23.178 l -2.439,-2.432 c 9.514,-10.145 20.973,-18.347 33.758,-23.965 12.314,-5.414 25.85,-8.428 40.053,-8.484 14.205,-0.054 27.764,2.856 40.124,8.181 12.831,5.523 24.349,13.64 33.94,23.712 l -2.421,2.449 0,0 z"
   id="path7"
   inkscape:connector-curvature="0"
   style="fill:#5d0425" />
		<path
   d="m 212.88,323.309 c -5.402,-6.034 -12.001,-10.911 -19.399,-14.242 -7.117,-3.197 -14.982,-4.958 -23.251,-4.927 -8.275,0.032 -16.135,1.856 -23.23,5.114 -7.371,3.383 -13.931,8.32 -19.292,14.408 l -2.52,-2.363 c 5.667,-6.435 12.614,-11.658 20.431,-15.247 7.522,-3.454 15.843,-5.385 24.598,-5.417 8.745,-0.036 17.075,1.832 24.62,5.22 7.834,3.524 14.814,8.687 20.533,15.073 l -2.49,2.381 0,0 z"
   id="path9"
   inkscape:connector-curvature="0"
   style="fill:#5d0425" />
		<path
   clip-rule="evenodd"
   d="m 122.941,283.701 7.961,9.441 c 4.649,5.516 2.621,10.672 -1.789,14.625 -4.667,4.186 -9.93,4.961 -14.271,-0.19 l -7.979,-9.465 4.008,-3.594 8.063,9.568 c 2.017,2.389 4.903,2.332 7.211,0.261 2.123,-1.902 3.115,-4.804 0.607,-7.783 l -7.817,-9.271 4.006,-3.592 0,0 z"
   id="path11"
   inkscape:connector-curvature="0"
   style="fill:#5d0425;fill-rule:evenodd" />
		<polygon
   clip-rule="evenodd"
   points="151.257,283.539 161.248,281.394 162.125,285.337 152.132,287.478 153.283,292.649 163.981,290.358 164.857,294.3 164.857,294.3 148.699,297.763 143.917,276.252 159.851,272.836 160.727,276.782 150.254,279.026 "
   id="polygon13"
   style="fill:#5d0425;fill-rule:evenodd" />
		<polygon
   clip-rule="evenodd"
   points="195.903,283.874 195.108,287.71 185.126,285.961 183.353,294.548 177.698,293.559 182.025,272.635 197.656,275.374 196.865,279.212 196.865,279.212 186.882,277.463 185.918,282.125 "
   id="polygon15"
   style="fill:#5d0425;fill-rule:evenodd" />
		<path
   clip-rule="evenodd"
   d="m 217.128,301.622 -5.728,-4.022 7.695,-5.464 -1.967,9.486 0,0 z m 7.645,-12.191 -5.372,-3.772 -20.298,13.73 4.912,3.448 3.924,-2.78 8.322,5.845 -1.005,4.834 4.989,3.512 4.528,-24.817 0,0 z"
   id="path17"
   inkscape:connector-curvature="0"
   style="fill:#5d0425;fill-rule:evenodd" />
	</g>
	<g
   id="g19">
		<radialGradient
   id="SVGID_1_"
   cx="178.8726"
   cy="126.2539"
   r="123.1855"
   gradientUnits="userSpaceOnUse">
			<stop
   offset="0.7636"
   style="stop-color:#EAA822"
   id="stop22" />
			<stop
   offset="1"
   style="stop-color:#CC7A29"
   id="stop24" />
		</radialGradient>
		
		<linearGradient
   id="SVGID_2_"
   gradientUnits="userSpaceOnUse"
   x1="178.8726"
   y1="187.4565"
   x2="178.8726"
   y2="63.305302">
			<stop
   offset="0"
   style="stop-color:#EAA822"
   id="stop29" />
			<stop
   offset="0.3939"
   style="stop-color:#F1C062"
   id="stop31" />
		</linearGradient>
		
		<g
   id="g35">
			<g
   id="g37">
				<radialGradient
   id="SVGID_3_"
   cx="180.6304"
   cy="122.6836"
   r="126.9583"
   gradientUnits="userSpaceOnUse">
					<stop
   offset="0"
   style="stop-color:#A21D2E"
   id="stop40" />
					<stop
   offset="1"
   style="stop-color:#650B1A"
   id="stop42" />
				</radialGradient>
				
				<radialGradient
   id="SVGID_4_"
   cx="180.62939"
   cy="122.6836"
   r="126.9596"
   gradientUnits="userSpaceOnUse">
					<stop
   offset="0"
   style="stop-color:#A21D2E"
   id="stop47" />
					<stop
   offset="1"
   style="stop-color:#650B1A"
   id="stop49" />
				</radialGradient>
				
				<radialGradient
   id="SVGID_5_"
   cx="180.6304"
   cy="122.6821"
   r="126.9589"
   gradientUnits="userSpaceOnUse">
					<stop
   offset="0"
   style="stop-color:#A21D2E"
   id="stop54" />
					<stop
   offset="1"
   style="stop-color:#650B1A"
   id="stop56" />
				</radialGradient>
				
				<radialGradient
   id="SVGID_6_"
   cx="180.6304"
   cy="122.6807"
   r="126.9604"
   gradientUnits="userSpaceOnUse">
					<stop
   offset="0"
   style="stop-color:#A21D2E"
   id="stop61" />
					<stop
   offset="1"
   style="stop-color:#650B1A"
   id="stop63" />
				</radialGradient>
				
			</g>
			
			
			
			
		</g>
		<g
   id="g75">
			<g
   id="g77">
				
				
			</g>
			<g
   id="g83">
				
				
				
				
				
				
				
				
				
				
			</g>
		</g>
	</g>
	<g
   id="g105">
		<polygon
   points="51.473,385.027 29.354,385.027 29.354,374.079 47.585,374.079 47.585,362.377 29.354,362.377 29.354,351.43 51.473,351.43 51.473,339.728 17.791,339.728 17.791,339.777 17.791,396.729 51.473,396.729 "
   id="polygon107"
   style="fill:#5d0425" />
		<polygon
   points="116.474,447.949 100.388,447.949 100.388,439.986 113.648,439.986 113.648,431.475 100.388,431.475 100.388,423.513 116.474,423.513 116.474,415.003 91.979,415.003 91.979,415.039 91.979,456.458 116.474,456.458 "
   id="polygon109"
   style="fill:#5d0425" />
		<polygon
   points="57.649,415.039 57.649,456.458 82.144,456.458 82.144,447.949 66.059,447.949 66.059,415.003 57.649,415.003 "
   id="polygon111"
   style="fill:#5d0425" />
		<polygon
   points="294.278,447.949 278.191,447.949 278.191,439.986 291.452,439.986 291.452,431.475 278.191,431.475 278.191,423.513 294.278,423.513 294.278,415.003 269.783,415.003 269.783,415.039 269.783,456.458 294.278,456.458 "
   id="polygon113"
   style="fill:#5d0425" />
		<path
   d="m 102.247,339.624 v 34.057 c 0,7.143 -5.811,12.955 -12.955,12.955 -7.143,0 -12.955,-5.813 -12.955,-12.955 V 339.624 H 64.678 v 34.057 c 0,13.594 11.021,24.614 24.614,24.614 13.594,0 24.614,-11.021 24.614,-24.614 v -34.057 h -11.659 z"
   id="path115"
   inkscape:connector-curvature="0"
   style="fill:#5d0425" />
		<path
   d="m 249.941,415.003 v 25.567 c 0,5.362 -4.363,9.726 -9.727,9.726 -5.362,0 -9.726,-4.363 -9.726,-9.726 v -25.567 h -8.753 v 25.567 c 0,10.205 8.273,18.479 18.479,18.479 10.206,0 18.479,-8.273 18.479,-18.479 v -25.567 h -8.752 z"
   id="path117"
   inkscape:connector-curvature="0"
   style="fill:#5d0425" />
		<path
   d="m 160.952,396.729 h 15.545 l -20.313,-24.211 c 7.174,-2.244 12.347,-8.53 12.347,-15.949 0,-9.301 -8.119,-16.841 -18.136,-16.841 h -21.034 v 57.001 H 141.02 V 373.41 h 0.365 l 19.567,23.319 z m -4.08,-39.026 c 0,3.887 -2.373,8.96 -12.629,8.96 h -3.222 v -15.276 h 9.375 c 4.534,0 6.476,3.508 6.476,6.316 z"
   id="path119"
   inkscape:connector-curvature="0"
   style="fill:#5d0425" />
		<path
   d="m 206.965,337.407 c -15.383,0 -27.853,13.631 -27.853,30.443 0,16.813 12.47,30.444 27.853,30.444 15.382,0 27.853,-13.631 27.853,-30.444 0,-16.812 -12.471,-30.443 -27.853,-30.443 z m 0,49.229 c -8.93,0 -16.193,-8.428 -16.193,-18.785 0,-10.357 7.264,-18.784 16.193,-18.784 8.929,0 16.193,8.427 16.193,18.784 0,10.357 -7.264,18.785 -16.193,18.785 z"
   id="path121"
   inkscape:connector-curvature="0"
   style="fill:#5d0425" />
		<path
   d="m 267.959,339.728 h -12.955 v 10e-4 l -6.785,-10e-4 v 57.001 h 11.659 v -45.342 h 8.081 c 3.571,0 6.478,2.906 6.478,6.478 0,3.572 -2.906,6.478 -6.478,6.478 h -4.178 v 11.659 h 4.178 c 10.018,0 18.137,-8.12 18.137,-18.137 0,-10.018 -8.119,-18.137 -18.137,-18.137 z"
   id="path123"
   inkscape:connector-curvature="0"
   style="fill:#5d0425" />
		<polygon
   points="305.333,377.206 312.256,363.046 328.723,396.729 340.755,396.729 312.256,338.432 283.754,396.729 295.789,396.729 300.899,386.274 319.319,386.274 315.095,377.206 "
   id="polygon125"
   style="fill:#5d0425" />
		<polygon
   points="141.144,441.656 146.221,431.271 158.296,455.972 167.12,455.972 146.221,413.222 125.32,455.972 134.144,455.972 137.893,448.306 151.4,448.306 148.303,441.656 "
   id="polygon127"
   style="fill:#5d0425" />
		<path
   d="m 192.29,433.522 v 8.745 h 8.174 v 6.245 c -1.82,1.01 -3.868,1.605 -6.055,1.605 -7.363,0 -13.352,-6.454 -13.352,-14.388 0,-7.934 5.988,-14.389 13.352,-14.389 5.018,0 9.391,3 11.673,7.42 l 1.784,-11.898 c -3.784,-2.788 -8.425,-4.451 -13.457,-4.451 -12.683,0 -22.964,10.439 -22.964,23.318 0,12.879 10.282,23.318 22.964,23.318 5.638,0 10.794,-2.072 14.79,-5.496 h 0.017 v -20.03 H 192.29 z"
   id="path129"
   inkscape:connector-curvature="0"
   style="fill:#5d0425" />
	</g>
</g>
<g
   transform="matrix(0.00464472,0,0,-0.00457811,5.9720019,71.121096)"
   id="g6"
   style="fill:#5d0425;fill-opacity:1;stroke:none"><path
     d="m 8481,15437 c -12,-31 -75,-355 -116,-597 -153,-901 -228,-1769 -242,-2780 -16,-1212 76,-2353 292,-3615 387,-2272 1190,-4655 2254,-6695 l 81,-155 -192,195 C 9115,3252 7891,5371 6986,7972 c -285,822 -468,1426 -781,2583 -383,1418 -906,2785 -1444,3779 -45,82 -81,153 -81,157 0,33 -146,-44 -425,-224 C 2443,13098 1220,11215 905,9111 672,7545 930,5957 1644,4575 2481,2955 3935,1654 5625,1014 c 102,-38 145,-43 145,-16 0,9 29,85 64,167 211,498 443,1201 596,1815 218,868 339,1646 400,2575 16,230 23,1056 12,1280 -5,105 -8,192 -6,194 12,14 169,-394 280,-725 381,-1142 671,-2586 823,-4099 50,-497 92,-1074 107,-1465 4,-96 11,-185 15,-198 8,-22 9,-22 236,-22 126,0 272,3 327,7 l 98,6 -6,91 c -96,1332 -280,2502 -533,3381 -9,33 25,-16 102,-145 395,-659 930,-1381 1469,-1980 297,-330 951,-960 997,-960 35,0 370,127 614,233 178,77 560,270 735,372 1575,913 2762,2356 3344,4062 343,1010 465,2098 355,3183 -210,2081 -1289,3957 -3009,5234 -274,204 -736,496 -783,496 -27,0 -54,-54 -232,-460 -1205,-2742 -1918,-5513 -2035,-7915 -5,-115 -10,-364 -10,-553 -1,-188 -3,-342 -5,-342 -9,0 -111,279 -156,429 -251,828 -447,2172 -544,3716 -68,1100 -72,2189 -9,2955 37,459 69,646 194,1150 195,781 410,1746 410,1840 0,35 9,32 -185,59 -272,39 -481,58 -848,75 -94,4 -98,3 -106,-17 z"
     id="path10"
     inkscape:connector-curvature="0"
     style="fill:#5d0425;fill-opacity:1" /></g></svg>